<?xml version="1.0" encoding="utf-8"?>
<!-- Generator: Adobe Illustrator 22.1.0, SVG Export Plug-In . SVG Version: 6.00 Build 0)  -->
<svg version="1.1" id="Logo" xmlns="http://www.w3.org/2000/svg" xmlns:xlink="http://www.w3.org/1999/xlink" x="0px" y="0px"
	 viewBox="0 0 808 316" style="enable-background:new 0 0 808 316;" xml:space="preserve">
<path id="SP46" d="M787.9,149c-10.1-15.3-22.8-27-37.9-35.2c-15.2-8.1-29.9-12.2-44.3-12.2c-5.6,0-9.4,0.4-11.4,1.3L755,12.6h-71.2
	L625.2,102c-11,16.6-19.3,29.7-24.9,39.2c-5.6,9.6-10.3,19.5-13.9,29.9c-0.8,2.3-1.5,4.6-2.1,6.9v-39h-63.7v55.2h-76.7l89.4-181.7
	h-66.6l-28.4,58.1c-1.9-4.1-4-8-6.5-11.8c-10-15.2-22.6-26.7-37.9-34.6c-15.3-7.9-30.7-11.8-46.2-11.8H223.7v167
	c-2.1-3.6-4.5-7-7.3-10.2c-11.7-13.5-30.8-25.3-57.5-35.4l-28.7-10.5c-11.5-3.9-20-7.1-25.3-9.5c-5.3-2.4-9.5-5.4-12.4-9.1
	c-2.9-3.6-4.4-8.6-4.4-14.8c0-7,3.5-12.8,10.5-17.3c7-4.5,16.4-6.7,28.2-6.7c21.6,0,40.2,7.7,55.6,23.2l38.8-38.8
	c-9.8-11.8-22.7-21.8-38.6-30.1C166.9,12.2,147.7,8,125.2,8c-18.3,0-35.1,3.3-50.6,9.9c-15.5,6.6-27.8,16.2-36.9,28.9
	C28.6,59.4,24,74.2,24,91c0,22.2,6.1,39.8,18.3,52.9c12.2,13.1,29.9,23.8,52.9,32.2l19.4,6.7c13.2,4.5,23.4,8.4,30.6,11.6
	c7.2,3.2,12.9,7.2,17.3,11.8c4.4,4.6,6.5,10.3,6.5,17.1c0,7.9-3.6,14.7-10.7,20.4c-7.2,5.8-18.2,8.6-33.1,8.6
	c-16.9,0-31.3-3-43.2-8.9c-11.9-5.9-23.3-14.5-33.9-25.7L7.6,258.4c9.3,13.5,24,25.6,44.3,36.5c20.2,10.8,44.5,16.2,72.9,16.2
	c36,0,63.2-8.1,81.6-24.5c7.2-6.4,13-13.6,17.4-21.7v41.5h64.9v-94.8h59c8.2,0,16.2-1.1,24.1-3.2v43.2h148.8v54.8h63.7v-77.2
	c2.5,9.4,6.3,18.3,11.6,26.9c10,16.2,23.4,28.9,40.3,38.4c16.9,9.4,35.3,14.1,55.2,14.1c20.2,0,38.9-4.7,56.1-14.1
	c17.1-9.4,30.7-22.3,40.7-38.6c10-16.3,15-34.1,15-53.5C803.1,182.1,798,164.3,787.9,149z M369.6,143.1c-8.2,6.3-16.7,9.5-25.7,9.5
	h-55.2V71.7h55.2c9,0,17.6,3.2,25.7,9.5c8.1,6.3,12.2,16.7,12.2,31S377.7,136.8,369.6,143.1z M724.5,235.6
	c-9.1,9.3-20.2,13.9-33.1,13.9c-12.6,0-23.5-4.5-32.5-13.5c-9-9-13.5-19.9-13.5-32.9c0-12.6,4.4-23.5,13.3-32.5
	c8.9-9,19.7-13.5,32.7-13.5c12.6,0,23.6,4.6,32.9,13.7c9.3,9.1,13.9,19.9,13.9,32.2C738.2,215.5,733.6,226.4,724.5,235.6z"/>
</svg>
